{
  "project_info": {
    "project_number": "1043115394338",
    "firebase_url": "https://truck-load-823ee.firebaseio.com",
    "project_id": "truck-load-823ee",
    "storage_bucket": "truck-load-823ee.appspot.com"
  },
  "client": [
    {
      "client_info": {
        "mobilesdk_app_id": "1:1043115394338:android:4fabdae54ae7cd9c10517b",
        "android_client_info": {
          "package_name": "com.newproject"
        }
      },
      "oauth_client": [
        {
          "client_id": "1043115394338-l7mur2msf34344oghtldd0dib2uoj1te.apps.googleusercontent.com",
          "client_type": 3
        }
      ],
      "api_key": [
        {
          "current_key": "AIzaSyDkRXUewgqrL53jXotLJcrEtwuwXYVppnM"
        }
      ],
      "services": {
        "appinvite_service": {
          "other_platform_oauth_client": [
            {
              "client_id": "1043115394338-l7mur2msf34344oghtldd0dib2uoj1te.apps.googleusercontent.com",
              "client_type": 3
            }
          ]
        }
      }
    }
  ],
  "configuration_version": "1"
}